%YAML 1.1
%TAG !u! tag:unity3d.com,2011:
--- !u!114 &11400000
MonoBehaviour:
  m_ObjectHideFlags: 0
  m_CorrespondingSourceObject: {fileID: 0}
  m_PrefabInstance: {fileID: 0}
  m_PrefabAsset: {fileID: 0}
  m_GameObject: {fileID: 0}
  m_Enabled: 1
  m_EditorHideFlags: 0
  m_Script: {fileID: 11500000, guid: 43034b6f746e0c34aa0ca851ce5f7e79, type: 3}
  m_Name: FalldownObjectInfo
  m_EditorClassIdentifier: 
  m_FalldownObjectInfos:
  - m_Type: 1
    m_FalldownObjectPrefab: {fileID: 5323821267459493258, guid: a43071f35f42cd9478c520810c02f656,
      type: 3}
    m_HitDamage: 0
    m_RecoveryHp: 30
    m_AddScore: 50
  - m_Type: 1
    m_FalldownObjectPrefab: {fileID: -1536689921336836361, guid: 0be98f252ce477d48b69e462307e2a8e,
      type: 3}
    m_HitDamage: 0
    m_RecoveryHp: 25
    m_AddScore: 40
  - m_Type: 1
    m_FalldownObjectPrefab: {fileID: 5829848824775976720, guid: 80e9b960d1436a540b8788b431a16135,
      type: 3}
    m_HitDamage: 0
    m_RecoveryHp: 20
    m_AddScore: 30
  - m_Type: 0
    m_FalldownObjectPrefab: {fileID: 2481895269631631228, guid: ffceb1f00b58d8f408e6ebe19cb3bb39,
      type: 3}
    m_HitDamage: 10
    m_RecoveryHp: 0
    m_AddScore: -40
  - m_Type: 0
    m_FalldownObjectPrefab: {fileID: -1522573064114385601, guid: 97881a5b50d1a3440b5ccdef55303527,
      type: 3}
    m_HitDamage: 40
    m_RecoveryHp: 0
    m_AddScore: -80
  - m_Type: 0
    m_FalldownObjectPrefab: {fileID: 5144166324931998379, guid: fbc2df20dfe4f3e42b345de664b224b6,
      type: 3}
    m_HitDamage: 40
    m_RecoveryHp: 0
    m_AddScore: -80
  - m_Type: 0
    m_FalldownObjectPrefab: {fileID: -702502708387823262, guid: 68f7becadbd881041bc3a8beef5ee79c,
      type: 3}
    m_HitDamage: 20
    m_RecoveryHp: 0
    m_AddScore: -40
  - m_Type: 0
    m_FalldownObjectPrefab: {fileID: 7673857129052031081, guid: 38434347557c0514e9f11dc040de5030,
      type: 3}
    m_HitDamage: 80
    m_RecoveryHp: 0
    m_AddScore: -120
