%YAML 1.1
%TAG !u! tag:unity3d.com,2011:
--- !u!1 &2520459676734177793
GameObject:
  m_ObjectHideFlags: 0
  m_CorrespondingSourceObject: {fileID: 0}
  m_PrefabInstance: {fileID: 0}
  m_PrefabAsset: {fileID: 0}
  serializedVersion: 6
  m_Component:
  - component: {fileID: 2520459676733693473}
  m_Layer: 0
  m_Name: tail.01
  m_TagString: Untagged
  m_Icon: {fileID: 0}
  m_NavMeshLayer: 0
  m_StaticEditorFlags: 0
  m_IsActive: 1
--- !u!4 &2520459676733693473
Transform:
  m_ObjectHideFlags: 0
  m_CorrespondingSourceObject: {fileID: 0}
  m_PrefabInstance: {fileID: 0}
  m_PrefabAsset: {fileID: 0}
  m_GameObject: {fileID: 2520459676734177793}
  serializedVersion: 2
  m_LocalRotation: {x: -0.000000061950765, y: -0.6030414, z: 0.7977099, w: 0.000000047810644}
  m_LocalPosition: {x: -1.222731e-18, y: -0.0061624744, z: -0.0021386226}
  m_LocalScale: {x: 1, y: 1, z: 1}
  m_ConstrainProportionsScale: 0
  m_Children: []
  m_Father: {fileID: 2520459676733693489}
  m_LocalEulerAnglesHint: {x: 0, y: 0, z: 0}
--- !u!1 &2520459676734177795
GameObject:
  m_ObjectHideFlags: 0
  m_CorrespondingSourceObject: {fileID: 0}
  m_PrefabInstance: {fileID: 0}
  m_PrefabAsset: {fileID: 0}
  serializedVersion: 6
  m_Component:
  - component: {fileID: 2520459676733693475}
  m_Layer: 0
  m_Name: wing.L
  m_TagString: Untagged
  m_Icon: {fileID: 0}
  m_NavMeshLayer: 0
  m_StaticEditorFlags: 0
  m_IsActive: 1
--- !u!4 &2520459676733693475
Transform:
  m_ObjectHideFlags: 0
  m_CorrespondingSourceObject: {fileID: 0}
  m_PrefabInstance: {fileID: 0}
  m_PrefabAsset: {fileID: 0}
  m_GameObject: {fileID: 2520459676734177795}
  serializedVersion: 2
  m_LocalRotation: {x: 0.0029239673, y: -0.08712346, z: 0.9956336, w: -0.033386704}
  m_LocalPosition: {x: -0.004620367, y: -0.0009443784, z: 0.0000444571}
  m_LocalScale: {x: 1.0000001, y: 1, z: 0.9999999}
  m_ConstrainProportionsScale: 0
  m_Children: []
  m_Father: {fileID: 2520459676733693489}
  m_LocalEulerAnglesHint: {x: 0, y: 0, z: 0}
--- !u!1 &2520459676734177797
GameObject:
  m_ObjectHideFlags: 0
  m_CorrespondingSourceObject: {fileID: 0}
  m_PrefabInstance: {fileID: 0}
  m_PrefabAsset: {fileID: 0}
  serializedVersion: 6
  m_Component:
  - component: {fileID: 2520459676733693477}
  m_Layer: 0
  m_Name: wing.R
  m_TagString: Untagged
  m_Icon: {fileID: 0}
  m_NavMeshLayer: 0
  m_StaticEditorFlags: 0
  m_IsActive: 1
--- !u!4 &2520459676733693477
Transform:
  m_ObjectHideFlags: 0
  m_CorrespondingSourceObject: {fileID: 0}
  m_PrefabInstance: {fileID: 0}
  m_PrefabAsset: {fileID: 0}
  m_GameObject: {fileID: 2520459676734177797}
  serializedVersion: 2
  m_LocalRotation: {x: -0.0029239657, y: -0.08712346, z: 0.9956336, w: 0.033386704}
  m_LocalPosition: {x: 0.004620367, y: -0.0009443784, z: 0.0000444571}
  m_LocalScale: {x: 1.0000001, y: 1, z: 0.9999998}
  m_ConstrainProportionsScale: 0
  m_Children: []
  m_Father: {fileID: 2520459676733693489}
  m_LocalEulerAnglesHint: {x: 0, y: 0, z: 0}
--- !u!1 &2520459676734177809
GameObject:
  m_ObjectHideFlags: 0
  m_CorrespondingSourceObject: {fileID: 0}
  m_PrefabInstance: {fileID: 0}
  m_PrefabAsset: {fileID: 0}
  serializedVersion: 6
  m_Component:
  - component: {fileID: 2520459676733693489}
  m_Layer: 0
  m_Name: body
  m_TagString: Untagged
  m_Icon: {fileID: 0}
  m_NavMeshLayer: 0
  m_StaticEditorFlags: 0
  m_IsActive: 1
--- !u!4 &2520459676733693489
Transform:
  m_ObjectHideFlags: 0
  m_CorrespondingSourceObject: {fileID: 0}
  m_PrefabInstance: {fileID: 0}
  m_PrefabAsset: {fileID: 0}
  m_GameObject: {fileID: 2520459676734177809}
  serializedVersion: 2
  m_LocalRotation: {x: 0.7071068, y: 0, z: -0, w: 0.7071067}
  m_LocalPosition: {x: 1.1710194e-18, y: -0.00000039339065, z: 0.0087555405}
  m_LocalScale: {x: 1, y: 1, z: 1}
  m_ConstrainProportionsScale: 0
  m_Children:
  - {fileID: 2520459676733693491}
  - {fileID: 2520459676733693493}
  - {fileID: 2520459676733693495}
  - {fileID: 2520459676733693473}
  - {fileID: 2520459676733693475}
  - {fileID: 2520459676733693477}
  m_Father: {fileID: 2520459676733693503}
  m_LocalEulerAnglesHint: {x: 0, y: 0, z: 0}
--- !u!1 &2520459676734177811
GameObject:
  m_ObjectHideFlags: 0
  m_CorrespondingSourceObject: {fileID: 0}
  m_PrefabInstance: {fileID: 0}
  m_PrefabAsset: {fileID: 0}
  serializedVersion: 6
  m_Component:
  - component: {fileID: 2520459676733693491}
  m_Layer: 0
  m_Name: feet.L
  m_TagString: Untagged
  m_Icon: {fileID: 0}
  m_NavMeshLayer: 0
  m_StaticEditorFlags: 0
  m_IsActive: 1
--- !u!4 &2520459676733693491
Transform:
  m_ObjectHideFlags: 0
  m_CorrespondingSourceObject: {fileID: 0}
  m_PrefabInstance: {fileID: 0}
  m_PrefabAsset: {fileID: 0}
  m_GameObject: {fileID: 2520459676734177811}
  serializedVersion: 2
  m_LocalRotation: {x: 0.0000000754979, y: -3.3001183e-15, z: 1, w: 0.00000004371139}
  m_LocalPosition: {x: -0.002364924, y: -0.0051081115, z: 0.00034919858}
  m_LocalScale: {x: 1, y: 1, z: 1}
  m_ConstrainProportionsScale: 0
  m_Children: []
  m_Father: {fileID: 2520459676733693489}
  m_LocalEulerAnglesHint: {x: 0, y: 0, z: 0}
--- !u!1 &2520459676734177813
GameObject:
  m_ObjectHideFlags: 0
  m_CorrespondingSourceObject: {fileID: 0}
  m_PrefabInstance: {fileID: 0}
  m_PrefabAsset: {fileID: 0}
  serializedVersion: 6
  m_Component:
  - component: {fileID: 2520459676733693493}
  m_Layer: 0
  m_Name: feet.R
  m_TagString: Untagged
  m_Icon: {fileID: 0}
  m_NavMeshLayer: 0
  m_StaticEditorFlags: 0
  m_IsActive: 1
--- !u!4 &2520459676733693493
Transform:
  m_ObjectHideFlags: 0
  m_CorrespondingSourceObject: {fileID: 0}
  m_PrefabInstance: {fileID: 0}
  m_PrefabAsset: {fileID: 0}
  m_GameObject: {fileID: 2520459676734177813}
  serializedVersion: 2
  m_LocalRotation: {x: 0.0000000754979, y: -3.3001183e-15, z: 1, w: 0.00000004371139}
  m_LocalPosition: {x: 0.002364924, y: -0.0051081115, z: 0.00034919858}
  m_LocalScale: {x: 1, y: 1, z: 1}
  m_ConstrainProportionsScale: 0
  m_Children: []
  m_Father: {fileID: 2520459676733693489}
  m_LocalEulerAnglesHint: {x: 0, y: 0, z: 0}
--- !u!1 &2520459676734177815
GameObject:
  m_ObjectHideFlags: 0
  m_CorrespondingSourceObject: {fileID: 0}
  m_PrefabInstance: {fileID: 0}
  m_PrefabAsset: {fileID: 0}
  serializedVersion: 6
  m_Component:
  - component: {fileID: 2520459676733693495}
  m_Layer: 0
  m_Name: hair.01
  m_TagString: Untagged
  m_Icon: {fileID: 0}
  m_NavMeshLayer: 0
  m_StaticEditorFlags: 0
  m_IsActive: 1
--- !u!4 &2520459676733693495
Transform:
  m_ObjectHideFlags: 0
  m_CorrespondingSourceObject: {fileID: 0}
  m_PrefabInstance: {fileID: 0}
  m_PrefabAsset: {fileID: 0}
  m_GameObject: {fileID: 2520459676734177815}
  serializedVersion: 2
  m_LocalRotation: {x: 0.02501351, y: -0.0000000048205337, z: 0.00000007529463, w: 0.99968714}
  m_LocalPosition: {x: -1.1710194e-18, y: 0.007818692, z: 0.0020642828}
  m_LocalScale: {x: 1, y: 1, z: 1}
  m_ConstrainProportionsScale: 0
  m_Children: []
  m_Father: {fileID: 2520459676733693489}
  m_LocalEulerAnglesHint: {x: 0, y: 0, z: 0}
--- !u!1 &2520459676734177821
GameObject:
  m_ObjectHideFlags: 0
  m_CorrespondingSourceObject: {fileID: 0}
  m_PrefabInstance: {fileID: 0}
  m_PrefabAsset: {fileID: 0}
  serializedVersion: 6
  m_Component:
  - component: {fileID: 2520459676733693501}
  m_Layer: 0
  m_Name: Rig
  m_TagString: Untagged
  m_Icon: {fileID: 0}
  m_NavMeshLayer: 0
  m_StaticEditorFlags: 0
  m_IsActive: 1
--- !u!4 &2520459676733693501
Transform:
  m_ObjectHideFlags: 0
  m_CorrespondingSourceObject: {fileID: 0}
  m_PrefabInstance: {fileID: 0}
  m_PrefabAsset: {fileID: 0}
  m_GameObject: {fileID: 2520459676734177821}
  serializedVersion: 2
  m_LocalRotation: {x: -0.7071068, y: -0, z: -0, w: 0.7071067}
  m_LocalPosition: {x: 0, y: 0, z: 0}
  m_LocalScale: {x: 39.999996, y: 39.999992, z: 39.999992}
  m_ConstrainProportionsScale: 0
  m_Children:
  - {fileID: 2520459676733693503}
  m_Father: {fileID: 3584599820630843869}
  m_LocalEulerAnglesHint: {x: 0, y: 0, z: 0}
--- !u!1 &2520459676734177823
GameObject:
  m_ObjectHideFlags: 0
  m_CorrespondingSourceObject: {fileID: 0}
  m_PrefabInstance: {fileID: 0}
  m_PrefabAsset: {fileID: 0}
  serializedVersion: 6
  m_Component:
  - component: {fileID: 2520459676733693503}
  m_Layer: 0
  m_Name: root
  m_TagString: Untagged
  m_Icon: {fileID: 0}
  m_NavMeshLayer: 0
  m_StaticEditorFlags: 0
  m_IsActive: 1
--- !u!4 &2520459676733693503
Transform:
  m_ObjectHideFlags: 0
  m_CorrespondingSourceObject: {fileID: 0}
  m_PrefabInstance: {fileID: 0}
  m_PrefabAsset: {fileID: 0}
  m_GameObject: {fileID: 2520459676734177823}
  serializedVersion: 2
  m_LocalRotation: {x: 0, y: -0, z: -0, w: 1}
  m_LocalPosition: {x: -0, y: 0, z: 0}
  m_LocalScale: {x: 1, y: 1, z: 1}
  m_ConstrainProportionsScale: 0
  m_Children:
  - {fileID: 2520459676733693489}
  m_Father: {fileID: 2520459676733693501}
  m_LocalEulerAnglesHint: {x: 0, y: 0, z: 0}
--- !u!1 &3584599819398561755
GameObject:
  m_ObjectHideFlags: 0
  m_CorrespondingSourceObject: {fileID: 0}
  m_PrefabInstance: {fileID: 0}
  m_PrefabAsset: {fileID: 0}
  serializedVersion: 6
  m_Component:
  - component: {fileID: 3584599819398561749}
  - component: {fileID: 3584599819398561754}
  m_Layer: 0
  m_Name: Mesh_LOD0
  m_TagString: Untagged
  m_Icon: {fileID: 0}
  m_NavMeshLayer: 0
  m_StaticEditorFlags: 0
  m_IsActive: 1
--- !u!4 &3584599819398561749
Transform:
  m_ObjectHideFlags: 0
  m_CorrespondingSourceObject: {fileID: 0}
  m_PrefabInstance: {fileID: 0}
  m_PrefabAsset: {fileID: 0}
  m_GameObject: {fileID: 3584599819398561755}
  serializedVersion: 2
  m_LocalRotation: {x: -0, y: -0, z: -0, w: 1}
  m_LocalPosition: {x: 0, y: 0, z: 0}
  m_LocalScale: {x: 39.999996, y: 39.999996, z: 39.999996}
  m_ConstrainProportionsScale: 0
  m_Children: []
  m_Father: {fileID: 3584599820630843869}
  m_LocalEulerAnglesHint: {x: 0, y: 0, z: 0}
--- !u!137 &3584599819398561754
SkinnedMeshRenderer:
  m_ObjectHideFlags: 0
  m_CorrespondingSourceObject: {fileID: 0}
  m_PrefabInstance: {fileID: 0}
  m_PrefabAsset: {fileID: 0}
  m_GameObject: {fileID: 3584599819398561755}
  m_Enabled: 1
  m_CastShadows: 1
  m_ReceiveShadows: 1
  m_DynamicOccludee: 1
  m_StaticShadowCaster: 0
  m_MotionVectors: 1
  m_LightProbeUsage: 1
  m_ReflectionProbeUsage: 1
  m_RayTracingMode: 0
  m_RayTraceProcedural: 0
  m_RenderingLayerMask: 1
  m_RendererPriority: 0
  m_Materials:
  - {fileID: 2100000, guid: 76198734b86c6f84092e520e9fff3cbb, type: 2}
  m_StaticBatchInfo:
    firstSubMesh: 0
    subMeshCount: 0
  m_StaticBatchRoot: {fileID: 0}
  m_ProbeAnchor: {fileID: 0}
  m_LightProbeVolumeOverride: {fileID: 0}
  m_ScaleInLightmap: 1
  m_ReceiveGI: 1
  m_PreserveUVs: 0
  m_IgnoreNormalsForChartDetection: 0
  m_ImportantGI: 0
  m_StitchLightmapSeams: 1
  m_SelectedEditorRenderState: 3
  m_MinimumChartSize: 4
  m_AutoUVMaxDistance: 0.5
  m_AutoUVMaxAngle: 89
  m_LightmapParameters: {fileID: 0}
  m_SortingLayerID: 0
  m_SortingLayer: 0
  m_SortingOrder: 0
  serializedVersion: 2
  m_Quality: 0
  m_UpdateWhenOffscreen: 0
  m_SkinnedMotionVectors: 1
  m_Mesh: {fileID: -5523277661179574252, guid: 5e93d9a265dd2744d88876ce5ad47dcd, type: 3}
  m_Bones:
  - {fileID: 2520459676733693503}
  - {fileID: 2520459676733693489}
  - {fileID: 2520459676733693475}
  - {fileID: 2520459676733693477}
  - {fileID: 2520459676733693473}
  - {fileID: 2520459676733693495}
  - {fileID: 2520459676733693491}
  - {fileID: 2520459676733693493}
  m_BlendShapeWeights: []
  m_RootBone: {fileID: 2520459676733693503}
  m_AABB:
    m_Center: {x: 0, y: -0.000640359, z: 0.010031799}
    m_Extent: {x: 0.00569021, y: 0.0054851025, z: 0.010029795}
  m_DirtyAABB: 0
--- !u!1 &3584599820630843841
GameObject:
  m_ObjectHideFlags: 0
  m_CorrespondingSourceObject: {fileID: 0}
  m_PrefabInstance: {fileID: 0}
  m_PrefabAsset: {fileID: 0}
  serializedVersion: 6
  m_Component:
  - component: {fileID: 3584599820630843869}
  - component: {fileID: 3584599820630843840}
  m_Layer: 0
  m_Name: Penguin
  m_TagString: Untagged
  m_Icon: {fileID: 0}
  m_NavMeshLayer: 0
  m_StaticEditorFlags: 0
  m_IsActive: 1
--- !u!4 &3584599820630843869
Transform:
  m_ObjectHideFlags: 0
  m_CorrespondingSourceObject: {fileID: 0}
  m_PrefabInstance: {fileID: 0}
  m_PrefabAsset: {fileID: 0}
  m_GameObject: {fileID: 3584599820630843841}
  serializedVersion: 2
  m_LocalRotation: {x: 0, y: 0, z: 0, w: 1}
  m_LocalPosition: {x: 0, y: 0, z: 0}
  m_LocalScale: {x: 1, y: 1, z: 1}
  m_ConstrainProportionsScale: 0
  m_Children:
  - {fileID: 2520459676733693501}
  - {fileID: 3584599819398561749}
  m_Father: {fileID: 0}
  m_LocalEulerAnglesHint: {x: 0, y: 0, z: 0}
--- !u!136 &3584599820630843840
CapsuleCollider:
  m_ObjectHideFlags: 0
  m_CorrespondingSourceObject: {fileID: 0}
  m_PrefabInstance: {fileID: 0}
  m_PrefabAsset: {fileID: 0}
  m_GameObject: {fileID: 3584599820630843841}
  m_Material: {fileID: 0}
  m_IncludeLayers:
    serializedVersion: 2
    m_Bits: 0
  m_ExcludeLayers:
    serializedVersion: 2
    m_Bits: 0
  m_LayerOverridePriority: 0
  m_IsTrigger: 0
  m_ProvidesContacts: 0
  m_Enabled: 1
  serializedVersion: 2
  m_Radius: 0.20862022
  m_Height: 0.6724541
  m_Direction: 1
  m_Center: {x: 0, y: 0.39819992, z: 0.029793113}
